Library\Bee\artifacts\mvdfrm\UnityEngine.UI.ref.dll_FAE6DBEA21006BE5.mvfrm
Library\Bee\artifacts\mvdfrm\UnityEngine.AccessibilityModule.dll_34496298C57C2A35.mvfrm
Library\Bee\artifacts\mvdfrm\UnityEngine.AIModule.dll_5DE1576783CFB035.mvfrm
Library\Bee\artifacts\mvdfrm\UnityEngine.AndroidJNIModule.dll_44FCECF8B4599073.mvfrm
Library\Bee\artifacts\mvdfrm\UnityEngine.AnimationModule.dll_24E34C0D594FF39B.mvfrm
Library\Bee\artifacts\mvdfrm\UnityEngine.ARModule.dll_17541C6AE0ED0EFE.mvfrm
Library\Bee\artifacts\mvdfrm\UnityEngine.AssetBundleModule.dll_AA11477CAAF75C29.mvfrm
Library\Bee\artifacts\mvdfrm\UnityEngine.AudioModule.dll_D6E90C3F132675CD.mvfrm
Library\Bee\artifacts\mvdfrm\UnityEngine.ClothModule.dll_3DD16939ED4354B1.mvfrm
Library\Bee\artifacts\mvdfrm\UnityEngine.ClusterInputModule.dll_6FA24C85E157D9FD.mvfrm
Library\Bee\artifacts\mvdfrm\UnityEngine.ClusterRendererModule.dll_2E0D31DD0BB62A14.mvfrm
Library\Bee\artifacts\mvdfrm\UnityEngine.CoreModule.dll_065D0B34357DC32C.mvfrm
Library\Bee\artifacts\mvdfrm\UnityEngine.CrashReportingModule.dll_22BDFD497CC40A44.mvfrm
Library\Bee\artifacts\mvdfrm\UnityEngine.DirectorModule.dll_953B40B822F97C49.mvfrm
Library\Bee\artifacts\mvdfrm\UnityEngine.dll_EC57672C22AEFEA9.mvfrm
Library\Bee\artifacts\mvdfrm\UnityEngine.DSPGraphModule.dll_9A8CA221955A4D6A.mvfrm
Library\Bee\artifacts\mvdfrm\UnityEngine.GameCenterModule.dll_6F4A37137A9A8164.mvfrm
Library\Bee\artifacts\mvdfrm\UnityEngine.GIModule.dll_F61DA0751F7E984F.mvfrm
Library\Bee\artifacts\mvdfrm\UnityEngine.GridModule.dll_E3CE27224DD25923.mvfrm
Library\Bee\artifacts\mvdfrm\UnityEngine.HotReloadModule.dll_A62C0A1334830F1D.mvfrm
Library\Bee\artifacts\mvdfrm\UnityEngine.ImageConversionModule.dll_99FF2F8D8DDAE208.mvfrm
Library\Bee\artifacts\mvdfrm\UnityEngine.IMGUIModule.dll_0F48ABA5D95809AE.mvfrm
Library\Bee\artifacts\mvdfrm\UnityEngine.InputLegacyModule.dll_3B56629B42E9121A.mvfrm
Library\Bee\artifacts\mvdfrm\UnityEngine.InputModule.dll_3D5ED3EF895E9A71.mvfrm
Library\Bee\artifacts\mvdfrm\UnityEngine.JSONSerializeModule.dll_9460EBD4C4B78ABF.mvfrm
Library\Bee\artifacts\mvdfrm\UnityEngine.LocalizationModule.dll_ADEF16D878D3CCF6.mvfrm
Library\Bee\artifacts\mvdfrm\UnityEngine.ParticleSystemModule.dll_75D04695EAD595D2.mvfrm
Library\Bee\artifacts\mvdfrm\UnityEngine.PerformanceReportingModule.dll_896B7E7B7B4B83EB.mvfrm
Library\Bee\artifacts\mvdfrm\UnityEngine.Physics2DModule.dll_71893BFDFA4CEB30.mvfrm
Library\Bee\artifacts\mvdfrm\UnityEngine.PhysicsModule.dll_ED46E78688458C3E.mvfrm
Library\Bee\artifacts\mvdfrm\UnityEngine.ProfilerModule.dll_C78179EEBC530356.mvfrm
Library\Bee\artifacts\mvdfrm\UnityEngine.RuntimeInitializeOnLoadManagerInitializerModule.dll_DE5FBDD5A580BBF9.mvfrm
Library\Bee\artifacts\mvdfrm\UnityEngine.ScreenCaptureModule.dll_AE489959D923B721.mvfrm
Library\Bee\artifacts\mvdfrm\UnityEngine.SharedInternalsModule.dll_1E106E630508DD58.mvfrm
Library\Bee\artifacts\mvdfrm\UnityEngine.SpriteMaskModule.dll_5876A9A39C0A16DE.mvfrm
Library\Bee\artifacts\mvdfrm\UnityEngine.SpriteShapeModule.dll_C37274D760999433.mvfrm
Library\Bee\artifacts\mvdfrm\UnityEngine.StreamingModule.dll_D978395DA8D7AAD9.mvfrm
Library\Bee\artifacts\mvdfrm\UnityEngine.SubstanceModule.dll_B6234DA6F42AA8E7.mvfrm
Library\Bee\artifacts\mvdfrm\UnityEngine.SubsystemsModule.dll_C32410056A51FEF1.mvfrm
Library\Bee\artifacts\mvdfrm\UnityEngine.TerrainModule.dll_078D62F55E03D52C.mvfrm
Library\Bee\artifacts\mvdfrm\UnityEngine.TerrainPhysicsModule.dll_764AEF690418905F.mvfrm
Library\Bee\artifacts\mvdfrm\UnityEngine.TextCoreFontEngineModule.dll_A7F582C95D36132A.mvfrm
Library\Bee\artifacts\mvdfrm\UnityEngine.TextCoreTextEngineModule.dll_EFDDB93AECB9CC48.mvfrm
Library\Bee\artifacts\mvdfrm\UnityEngine.TextRenderingModule.dll_D7880B64905B3716.mvfrm
Library\Bee\artifacts\mvdfrm\UnityEngine.TilemapModule.dll_A689CA7675C0B635.mvfrm
Library\Bee\artifacts\mvdfrm\UnityEngine.TLSModule.dll_8C326661DE9D9D92.mvfrm
Library\Bee\artifacts\mvdfrm\UnityEngine.UIElementsModule.dll_C762716D6D7E3AE8.mvfrm
Library\Bee\artifacts\mvdfrm\UnityEngine.UIElementsNativeModule.dll_46EC363CD6308E3F.mvfrm
Library\Bee\artifacts\mvdfrm\UnityEngine.UIModule.dll_5954F594E016B5E1.mvfrm
Library\Bee\artifacts\mvdfrm\UnityEngine.UmbraModule.dll_51BDB857A04D2140.mvfrm
Library\Bee\artifacts\mvdfrm\UnityEngine.UNETModule.dll_9903531D828CB8A5.mvfrm
Library\Bee\artifacts\mvdfrm\UnityEngine.UnityAnalyticsModule.dll_956FB75F96FCE7CE.mvfrm
Library\Bee\artifacts\mvdfrm\UnityEngine.UnityConnectModule.dll_DD655B7F2A5807E2.mvfrm
Library\Bee\artifacts\mvdfrm\UnityEngine.UnityCurlModule.dll_57FFED3EC963E588.mvfrm
Library\Bee\artifacts\mvdfrm\UnityEngine.UnityTestProtocolModule.dll_830F244F4D32BDF6.mvfrm
Library\Bee\artifacts\mvdfrm\UnityEngine.UnityWebRequestAssetBundleModule.dll_A98D8882C387351F.mvfrm
Library\Bee\artifacts\mvdfrm\UnityEngine.UnityWebRequestAudioModule.dll_0167D25A01B64E83.mvfrm
Library\Bee\artifacts\mvdfrm\UnityEngine.UnityWebRequestModule.dll_AB9E373798CF7C87.mvfrm
Library\Bee\artifacts\mvdfrm\UnityEngine.UnityWebRequestTextureModule.dll_0D362B5E98B822B8.mvfrm
Library\Bee\artifacts\mvdfrm\UnityEngine.UnityWebRequestWWWModule.dll_BA9FFE96DC7988B4.mvfrm
Library\Bee\artifacts\mvdfrm\UnityEngine.VehiclesModule.dll_0CFE3A379D234BE4.mvfrm
Library\Bee\artifacts\mvdfrm\UnityEngine.VFXModule.dll_0D10FED0B50B06FF.mvfrm
Library\Bee\artifacts\mvdfrm\UnityEngine.VideoModule.dll_FBF290A9D5B89172.mvfrm
Library\Bee\artifacts\mvdfrm\UnityEngine.VirtualTexturingModule.dll_6B78EAABAEDF0ECA.mvfrm
Library\Bee\artifacts\mvdfrm\UnityEngine.VRModule.dll_AC271C1A81D13B59.mvfrm
Library\Bee\artifacts\mvdfrm\UnityEngine.WindModule.dll_7CABE65CC6B44195.mvfrm
Library\Bee\artifacts\mvdfrm\UnityEngine.XRModule.dll_DEE5DF1F0B0B88B7.mvfrm
Library\Bee\artifacts\mvdfrm\Unity.Burst.Cecil.dll_C77A0570AF87E84E.mvfrm
Library\Bee\artifacts\mvdfrm\Unity.Burst.Cecil.Mdb.dll_25C5A1D4FBDBCF0B.mvfrm
Library\Bee\artifacts\mvdfrm\Unity.Burst.Cecil.Pdb.dll_3D181A447A90D08E.mvfrm
Library\Bee\artifacts\mvdfrm\Unity.Burst.Cecil.Rocks.dll_4AB78D78B2130E6E.mvfrm
Library\Bee\artifacts\mvdfrm\Unity.Burst.Unsafe.dll_27FBDD8CC1653FE5.mvfrm
Library\Bee\artifacts\mvdfrm\Unity.VisualScripting.Antlr3.Runtime.dll_602164C6B029FF1C.mvfrm